<?xml version="1.0"?>
<font>
  <info face="Arial" size="-20" bold="0" italic="0" charset="" unicode="1" stretchH="100" smooth="1" aa="2" padding="0,0,0,0" spacing="0,0" outline="0"/>
  <common lineHeight="23" base="18" scaleW="150" scaleH="100" pages="1" packed="0" alphaChnl="0" redChnl="4" greenChnl="4" blueChnl="4"/>
  <pages>
    <page id="0" file="common_number_0.png" />
  </pages>
  <chars count="10">
    <char id="48" x="0" y="0" width="28" height="42" xoffset="0" yoffset="0" xadvance="28" page="0" chnl="15" />
    <char id="49" x="28" y="0" width="28" height="42" xoffset="0" yoffset="0" xadvance="28" page="0" chnl="15" />
    <char id="50" x="56" y="0" width="28" height="42" xoffset="0" yoffset="0" xadvance="28" page="0" chnl="15" />
    <char id="51" x="84" y="0" width="28" height="42" xoffset="0" yoffset="0" xadvance="28" page="0" chnl="15" />
    <char id="52" x="112" y="0" width="28" height="42" xoffset="0" yoffset="0" xadvance="28" page="0" chnl="15" />
    <char id="53" x="0" y="42" width="28" height="42" xoffset="0" yoffset="0" xadvance="28" page="0" chnl="15" />
    <char id="54" x="28" y="42" width="28" height="42" xoffset="0" yoffset="0" xadvance="28" page="0" chnl="15" />
    <char id="55" x="56" y="42" width="28" height="42" xoffset="0" yoffset="0" xadvance="28" page="0" chnl="15" />
    <char id="56" x="84" y="42" width="28" height="42" xoffset="0" yoffset="0" xadvance="28" page="0" chnl="15" />
    <char id="57" x="112" y="42" width="28" height="42" xoffset="0" yoffset="0" xadvance="28" page="0" chnl="15" />
  </chars>
</font>
